{
    "sEmptyTable"       : "Nenhum registro encontrado",
    "sInfo"             : "Mostrando de <span class='txt-color-darken'>_START_</span> até <span class='txt-color-darken'>_END_</span> de <span class='text-primary'>_TOTAL_</span> registros",
    "sInfoEmpty"        : "Mostrando 0 até 0 de 0 registros",
    "sInfoFiltered"     : "(Filtrados de _MAX_ registros)",
    "sInfoPostFix"      : "",
    "sInfoThousands"    : ".",
    "sLengthMenu"       : "_MENU_",
    "sLoadingRecords"   : "Carregando...",
    "sProcessing"       : "Processando...",
    "sZeroRecords"      : "Nenhum registro encontrado",
    "sSearch"           : "<span class='input-group-addon'><i class='glyphicon glyphicon-search'></i></span>",
    "oPaginate"         : {
        "sNext"     : "Próximo",
        "sPrevious" : "Anterior",
        "sFirst"    : "Primeiro",
        "sLast"     : "Último"
    },
    "oAria"             : {
        "sSortAscending"    : ": Ordenar colunas de forma ascendente",
        "sSortDescending"   : ": Ordenar colunas de forma descendente"
    }
}