{
  "/js/app.js": "/js/app.js",
  "/assets/js/app/controllers/backbone/Pessoais.js": "/assets/js/app/controllers/backbone/Pessoais.js",
  "/mix.js": "/mix.js",
  "/assets/css/nifty.css": "/assets/css/nifty.css",
  "/assets/css/font-awesome.css": "/assets/css/font-awesome.css",
  "/assets/css/pdf.css": "/assets/css/pdf.css",
  "/assets/js/csplus.js": "/assets/js/csplus.js",
  "/assets/js/app/controllers/Pessoais.js": "/assets/js/app/controllers/Pessoais.js"
}